<?xml version="1.0" standalone="no"?>
<!DOCTYPE svg PUBLIC "-//W3C//DTD SVG 20010904//EN"
 "http://www.w3.org/TR/2001/REC-SVG-20010904/DTD/svg10.dtd">
<svg version="1.0" xmlns="http://www.w3.org/2000/svg"
 width="144.000000pt" height="121.000000pt" viewBox="0 0 144.000000 121.000000"
 preserveAspectRatio="xMidYMid meet">

<g transform="translate(0.000000,121.000000) scale(0.100000,-0.100000)"
fill="#FF6633" stroke="none">
<path d="M503 1028 c-50 -101 -139 -284 -199 -407 -60 -123 -152 -312 -205
-420 l-96 -196 126 -3 c69 -1 131 0 139 3 31 12 400 812 428 928 8 34 25 31
37 -9 17 -54 60 -158 97 -239 21 -44 60 -129 88 -190 28 -60 71 -154 96 -208
25 -54 46 -100 46 -102 0 -3 -107 -6 -237 -7 l-237 -3 -37 -85 -36 -85 228 -3
c126 -1 332 -1 457 0 l229 3 -71 145 c-72 148 -180 370 -395 813 l-120 247
-125 0 -124 0 -89 -182z"/>
</g>
</svg>
